,Current adoption %,Current adoption Mha,% new allocation,Total % allocated,New Mha in Solution
Forest Protection,0.0,0.0,0.0,0.0,0.0
IP Forest Management,0.0,0.0,0.0,0.0,0.0
Peatland Protection,0.0,0.0,0.0,0.0,0.0
Wetland Protection,0.0,0.0,0.0,0.0,0.0
Managed Grazing,0.0,0.0,0.0,0.0,0.0
Silvopasture,0.0,0.0,0.0,0.0,0.0
Conservation Agriculture,0.0,0.0,0.0,0.0,0.0
Regenerative Agriculture,0.0,0.0,0.0,0.0,0.0
Improved Rice,0.0,0.0,0.0,0.0,0.0
SRI,0.0,0.0,0.0,0.0,0.0
Tropical Forest Restoration,0.0,0.0,0.0,0.0,0.0
Temperate Forest Restoration,0.0,0.0,0.0,0.0,0.0
Afforestation,0.0,0.0,0.0,0.0,0.0
Bamboo,0.0,0.0,0.0,0.0,0.0
Mulitstrata Agroforestry,0.0,0.0,0.8628933444647573,0.8628933444647573,75.12349456910177
Perennial Bioenergy Crops,0.0,0.0,0.0,0.0,0.0
Tropical Tree Staples,0.0,0.0,0.13706358207049352,0.13706358207049352,11.932755455057166
Biochar,0.0,0.0,0.0,0.0,0.0
Irrigation Efficiency,0.0,0.0,0.0,0.0,0.0
Nutrient Management,0.0,0.0,0.0,0.0,0.0
Smallholder Intensification,0.0,0.0,0.0,0.0,0.0
Tree Intercropping,0.0,0.0,0.0,0.0,0.0
Grassland Protection,0.0,0.0,0.0,0.0,0.0
Farmland Restoration,0.0,0.0,0.0,0.0,0.0
Inaccessible,0.0,0.0,0.0,0.0,0.0
