,Current adoption %,Current adoption Mha,% new allocation,Total % allocated,New Mha in Solution
Forest Protection,0.0,0.0,0.0,0.0,0.0
IP Forest Management,0.0,0.0,0.0,0.0,0.0
Peatland Protection,0.0,0.0,0.0,0.0,0.0
Wetland Protection,0.0,0.0,0.0,0.0,0.0
Managed Grazing,0.0,0.0,0.0,0.0,0.0
Silvopasture,0.0,0.0,0.0,0.0,0.0
Conservation Agriculture,0.0,0.0,0.0,0.0,0.0
Regenerative Agriculture,0.0,0.0,0.0,0.0,0.0
Improved Rice,0.0,0.0,0.0,0.0,0.0
SRI,0.0,0.0,0.0,0.0,0.0
Tropical Forest Restoration,0.0,0.0,0.0,0.0,0.0
Temperate Forest Restoration,0.0,0.0,0.0,0.0,0.0
Afforestation,0.0,0.0,0.0,0.0,0.0
Bamboo,0.0,0.0,0.0,0.0,0.0
Mulitstrata Agroforestry,0.20527814661134164,0.8190598049792532,0.0,0.20527814661134164,0.0
Perennial Bioenergy Crops,0.0,0.0,0.0,0.0,0.0
Tropical Tree Staples,0.06843153861097612,0.2730418390577947,0.0,0.06843153861097612,0.0
Biochar,0.0,0.0,0.0,0.0,0.0
Irrigation Efficiency,0.03008985268160217,0.12005851219959267,0.9698490778771943,0.9999389305587965,3.8696978207300057
Nutrient Management,0.04866553418487849,0.1941754813976652,0.9135180195907284,0.9621835537756069,3.6449368981670065
Smallholder Intensification,0.005940257976917855,0.023701629327902242,0.03358763451122478,0.03952789248814264,0.1340146616997869
Tree Intercropping,0.31833005893909627,1.2701369351669942,0.4079907927577208,0.7263208516968171,1.6278832631033062
Grassland Protection,0.0,0.0,0.0,0.0,0.0
Farmland Restoration,0.0,0.0,0.0,0.0,0.0
Inaccessible,0.0,0.0,0.0,0.0,0.0
