,Current adoption %,Current adoption Mha,% new allocation,Total % allocated,New Mha in Solution
Forest Protection,0.0,0.0,0.0,0.0,0.0
IP Forest Management,0.0,0.0,0.0,0.0,0.0
Peatland Protection,0.0,0.0,0.0,0.0,0.0
Wetland Protection,0.0,0.0,0.0,0.0,0.0
Managed Grazing,0.031226106133168043,9.399370207144912,0.34341724528603,0.3746433514191981,103.37202500354789
Silvopasture,0.12392504930966469,37.30267909270217,0.2445895960292595,0.3685146453389242,73.6239143007674
Conservation Agriculture,0.0,0.0,0.0,0.0,0.0
Regenerative Agriculture,0.0,0.0,0.0,0.0,0.0
Improved Rice,0.0,0.0,0.0,0.0,0.0
SRI,0.0,0.0,0.0,0.0,0.0
Tropical Forest Restoration,0.0,0.0,0.0,0.0,0.0
Temperate Forest Restoration,0.0,0.0,0.0,0.0,0.0
Afforestation,0.0,0.0,0.0,0.0,0.0
Bamboo,0.0,0.0,0.0,0.0,0.0
Mulitstrata Agroforestry,0.0,0.0,0.2015623444647574,0.2015623444647574,60.672281307336625
Perennial Bioenergy Crops,0.0,0.0,0.0,0.0,0.0
Tropical Tree Staples,0.0,0.0,0.0,0.0,0.0
Biochar,0.0,0.0,0.0,0.0,0.0
Irrigation Efficiency,0.0,0.0,0.0,0.0,0.0
Nutrient Management,0.0,0.0,0.0,0.0,0.0
Smallholder Intensification,0.0,0.0,0.0,0.0,0.0
Tree Intercropping,0.0,0.0,0.0,0.0,0.0
Grassland Protection,0.0,0.0,0.055238658777120336,0.055238658777120336,16.627388678500992
Farmland Restoration,0.0,0.0,0.0,0.0,0.0
Inaccessible,0.0,0.0,0.0,0.0,0.0
