,Current adoption %,Current adoption Mha,% new allocation,Total % allocated,New Mha in Solution
Forest Protection,0.0,0.0,0.0,0.0,0.0
IP Forest Management,0.0,0.0,0.0,0.0,0.0
Peatland Protection,0.0,0.0,0.0,0.0,0.0
Wetland Protection,0.0,0.0,0.0,0.0,0.0
Managed Grazing,0.0,0.0,0.0,0.0,0.0
Silvopasture,0.0,0.0,0.0,0.0,0.0
Conservation Agriculture,0.07436134009784863,0.327189896430534,0.5070660457942675,0.5814273858921162,2.231090601494777
Regenerative Agriculture,0.045269709543568466,0.19918672199170126,0.5364251763485477,0.5816948858921162,2.36027077593361
Improved Rice,0.0,0.0,0.0,0.0,0.0
SRI,0.0,0.0,0.0,0.0,0.0
Tropical Forest Restoration,0.0,0.0,0.0,0.0,0.0
Temperate Forest Restoration,0.0,0.0,0.0,0.0,0.0
Afforestation,0.0,0.0,0.0,0.0,0.0
Bamboo,0.0,0.0,0.0,0.0,0.0
Mulitstrata Agroforestry,0.0,0.0,0.0,0.0,0.0
Perennial Bioenergy Crops,0.0,0.0,0.0,0.0,0.0
Tropical Tree Staples,0.0,0.0,0.0,0.0,0.0
Biochar,0.0,0.0,0.0,0.0,0.0
Irrigation Efficiency,0.03008985268160217,0.13239535179904957,0.9698490778771943,0.9999389305587965,4.267335942659655
Nutrient Management,0.04866553418487849,0.21412835041346537,0.9135180195907284,0.9621835537756069,4.019479286199205
Smallholder Intensification,0.005940257976917855,0.02613713509843856,0.03358763451122478,0.03952789248814264,0.14778559184938905
Tree Intercropping,0.0,0.0,0.4185907927577208,0.4185907927577208,1.8417994881339717
Grassland Protection,0.0,0.0,0.0,0.0,0.0
Farmland Restoration,0.0,0.0,0.0,0.0,0.0
Inaccessible,0.0,0.0,0.0,0.0,0.0
