,Current adoption %,Current adoption Mha,% new allocation,Total % allocated,New Mha in Solution
Forest Protection,0.0,0.0,0.0,0.0,0.0
IP Forest Management,0.0,0.0,0.0,0.0,0.0
Peatland Protection,0.0,0.0,0.0,0.0,0.0
Wetland Protection,0.0,0.0,0.0,0.0,0.0
Managed Grazing,0.0,0.0,0.0,0.0,0.0
Silvopasture,0.0,0.0,0.0,0.0,0.0
Conservation Agriculture,0.07436134009784863,4.988158693763686,0.5070660457942675,0.5814273858921162,34.013990351879464
Regenerative Agriculture,0.045269709543568466,3.036692116182573,0.5364251763485477,0.5816948858921162,35.98340082946058
Improved Rice,0.0,0.0,0.0,0.0,0.0
SRI,0.0,0.0,0.0,0.0,0.0
Tropical Forest Restoration,0.0,0.0,0.0,0.0,0.0
Temperate Forest Restoration,0.0,0.0,0.0,0.0,0.0
Afforestation,0.0,0.0,0.0,0.0,0.0
Bamboo,0.0,0.0,0.0,0.0,0.0
Mulitstrata Agroforestry,0.0,0.0,0.0,0.0,0.0
Perennial Bioenergy Crops,0.0,0.0,0.0,0.0,0.0
Tropical Tree Staples,0.014671538610976115,0.9841668100242777,0.0,0.014671538610976115,0.0
Biochar,0.0,0.0,0.0,0.0,0.0
Irrigation Efficiency,0.0,0.0,0.0,0.0,0.0
Nutrient Management,0.04866553418487849,3.264484033121649,0.9135180195907284,0.9621835537756069,61.27878875414606
Smallholder Intensification,0.005940257976917855,0.39847250509164966,0.03358763451122478,0.03952789248814264,2.2530585230129585
Tree Intercropping,0.0,0.0,0.40389079275772083,0.40389079275772083,27.092994378187914
Grassland Protection,0.0,0.0,0.0,0.0,0.0
Farmland Restoration,0.0,0.0,0.0,0.0,0.0
Inaccessible,0.0,0.0,0.0,0.0,0.0
