,Current adoption %,Current adoption Mha,% new allocation,Total % allocated,New Mha in Solution
Forest Protection,0.23209835076273563,2.924439219610469,0.02524257114252701,0.25734092190526264,0.3180563963958403
IP Forest Management,0.14831476792211679,1.8687660758186715,0.3134908032954265,0.4618055712175433,3.9499841215223737
Peatland Protection,0.0011694049009243822,0.014734501751647215,0.13032624637423684,0.13149565127516122,1.6421107043153842
Wetland Protection,0.0,0.0,0.0,0.0,0.0
Managed Grazing,0.0,0.0,0.0,0.0,0.0
Silvopasture,0.0,0.0,0.0,0.0,0.0
Conservation Agriculture,0.0,0.0,0.0,0.0,0.0
Regenerative Agriculture,0.0,0.0,0.0,0.0,0.0
Improved Rice,0.0,0.0,0.0,0.0,0.0
SRI,0.0,0.0,0.0,0.0,0.0
Tropical Forest Restoration,0.0,0.0,0.0,0.0,0.0
Temperate Forest Restoration,0.0,0.0,0.11135371772603966,0.11135371772603966,1.4030568433480997
Afforestation,0.03796931736531228,0.47841339880293476,0.0,0.03796931736531228,0.0
Bamboo,0.0,0.0,0.0,0.0,0.0
Mulitstrata Agroforestry,0.0,0.0,0.0,0.0,0.0
Perennial Bioenergy Crops,0.0,0.0,0.0,0.0,0.0
Tropical Tree Staples,0.0,0.0,0.0,0.0,0.0
Biochar,0.0,0.0,0.0,0.0,0.0
Irrigation Efficiency,0.0,0.0,0.0,0.0,0.0
Nutrient Management,0.0,0.0,0.0,0.0,0.0
Smallholder Intensification,0.0,0.0,0.0,0.0,0.0
Tree Intercropping,0.0,0.0,0.0,0.0,0.0
Grassland Protection,0.0,0.0,0.0,0.0,0.0
Farmland Restoration,0.0,0.0,0.0,0.0,0.0
Inaccessible,0.0,0.0,0.0,0.0,0.0
